OFDM Simulation Radar/Recieved_waveform.csv

#Digilent WaveForms Oscilloscope Acquisition
#Device Name: Discovery2
#Serial Number: SN:210321B2DDFB
#Date Time: 2026-06-03 23:34:47.565
#Sample rate: 500000Hz
#Samples: 8192
#Trigger: Source: Channel 1 Type: Edge Condition: Rising Level: 0 V Hyst.: Auto HoldOff: 0 s
#Channel 1: Range: 500 mV/div Offset: 0 V Sample Mode: Average
#Channel 2: Range: 500 mV/div Offset: 0 V Sample Mode: Average
#Wavegen Channel 1: Enabled
#Mode: Custom
#Type: ad2_i_waveform.csv
#Frequency: 390.625 Hz
#Period: 2.56 ms
#Amplitude: 1 V
#Offset: 0 V
#Phase: 0 °
#Wavegen Channel 2: Enabled
#Mode: Custom
#Type: ad2_q_waveform.csv
#Frequency: 390.625 Hz
#Period: 2.56 ms
#Amplitude: 1 V
#Offset: 0 V
#Phase: 0 °

Time (s),Channel 1 (V),Channel 2 (V)
-0.008190102888086642,-0.02004626775143281,0.2524598141187696
-0.008188102888086642,0.1629657518285038,0.2330443787459765
-0.008186102888086643,0.3086975451975272,0.252125065233023
-0.008184102888086643,0.386308197945318,-0.0943400315056015
-0.008182102888086643,0.1578820846178855,0.4633516121336857
-0.008180102888086642,-0.0827448300149069,-0.2453117789735799
-0.008178102888086642,0.1971957777128206,0.02215258073105177
-0.008176102888086642,-0.027841224141097,-0.09969601367738512
-0.008174102888086641,-0.3603130597110259,0.2989899092362907
-0.008172102888086643,-0.3216771889108663,0.176471817056308
-0.008170102888086643,-0.1603554827626667,0.3167316001804583
-0.008168102888086642,-0.3684469272479266,0.2153026878018559
-0.008166102888086642,-0.4121664652586734,-0.04546669418801656
-0.008164102888086642,-0.01936844545669255,-0.2479897700594836
-0.008162102888086642,-0.07122185100441696,-0.1137554668784441
-0.008160102888086643,-0.2789743843421178,0.1429969284823394
-0.008158102888086643,-0.282024584668542,-0.2094936481994577
-0.008156102888086643,-0.1223974342572121,-0.04747518750244434
-0.008154102888086642,-0.1024016765623744,0.3331342955816184
-0.008152102888086642,-0.1010460319728939,0.6230268306306936
-0.008150102888086642,0.06061458532274323,0.3910458528141356
-0.008148102888086642,0.2476935386708853,0.06031395370513514
-0.008146102888086643,0.0612924076174832,-0.0370979720445232
-0.008144102888086643,-0.2481334699313897,0.05094098490447646
-0.008142102888086642,-0.1186694116361407,-0.2061461593422383
-0.008140102888086642,0.2019405337760024,0.5574160490260531
-0.008138102888086642,-0.2240707784682512,0.3629269464122972
-0.008136102888086642,0.08976094399639967,-0.262718721031932
-0.008134102888086641,-0.1074853437730052,-0.2145148814856504
-0.008132102888086643,-0.2806689400789841,-0.1331709022513996
-0.008130102888086643,-0.1274811014677641,0.1500266550829533
-0.008128102888086642,0.03248496009093736,0.5386701114247272
-0.008126102888086642,0.02604564829090489,0.1145432731947293
-0.008124102888086642,-0.05698758281481646,-0.3189565338355649
-0.008122102888086642,-0.1437488365415258,0.4874535319068979
-0.008120102888086643,-0.133920413267801,0.6611882036047423
-0.008118102888086643,0.2893796097973035,0.3532192287260362
-0.008116102888086642,0.2290534255656128,0.01947458964514807
-0.008114102888086642,0.1975346888601907,0.6524847325756343
-0.008112102888086642,-0.4599529370378618,-0.2975326051487019
-0.008110102888086642,-0.1383262581836984,0.189861772485871
-0.008108102888086641,-0.3365892793949411,0.4104612881867186
-0.008106102888086643,0.08840529940681552,-0.401304759727101
-0.008104102888086643,0.1368695934809374,0.1289374752814617
-0.008102102888086642,-0.4209781550902968,-0.1609550597676135
-0.008100102888086642,0.0284180263224958,0.0924498467360238
-0.008098102888086642,-0.1044351434465952,0.3033416447509398
-0.008096102888086642,-0.2586397154998439,0.5430218469393733
-0.008094102888086643,0.09450570005951059,0.6585102125188651
-0.008092102888086643,0.1317859262703685,0.2156374366877952
-0.008090102888086642,0.5618641722830807,0.1232467442239163
-0.008088102888086642,0.4771363854405481,0.179149808142156
-0.008086102888086642,0.2080409344286648,0.2327096298602299
-0.008084102888086642,0.4866258975669645,-0.1328361533653668
-0.008082102888086641,0.60253350996738,0.434228459074378
-0.008080102888086643,0.3466555937031643,0.2032517279153943
-0.008078102888086643,-0.2064473988050044,0.3331342955816184
-0.008076102888086642,-0.5097728757012709,0.001063400929560159
-0.008074102888086642,-0.1769621289838031,0.06232244701960721
-0.008072102888086642,-0.1400208139204589,0.4094570415298738
-0.008070102888086642,-0.3677691049529462,0.3595794575548333
-0.008068102888086643,0.1602544626492363,0.1744633237419087
-0.008066102888086643,0.4849313418299135,0.4017578171577973
-0.008064102888086642,0.1924510216496388,0.7197692586089647
-0.008062102888086642,-0.01360695595140034,-0.07224660504705352
-0.008060102888086642,-0.02174082348828347,-0.3192912827216695
-0.008058102888086642,-0.003778532677560224,0.02750856290269947
-0.008056102888086641,0.2300701590078676,-0.323643018235974
-0.008054102888086643,0.5476299040933909,0.3120451157798377
-0.008052102888086643,0.3364882592819441,-0.2777824208901623
-0.008050102888086642,0.294463277008048,0.1881880280570809
-0.008048102888086642,-0.1708617283311407,0.4472836656182636
-0.008046102888086642,-0.1430710142467901,0.2839262093781381
-0.008044102888086642,0.338182815018632,0.3565667175831481
-0.008042102888086643,-0.01970735660389994,0.07571240244925342
-0.008040102888086643,-0.03699182511993147,0.1038313088511017
-0.008038102888086643,-0.1966189755312706,0.09345409339323768
-0.008036102888086642,-0.07562769592013416,0.2384003609177753
-0.008034102888086642,0.2097354901655154,-0.05919139850327301
-0.008032102888086642,0.2585386953867663,-0.1261411756508351
-0.008030102888086641,0.1531373285545514,-0.0595261473890714
-0.008028102888086643,-0.1817068850468326,-0.1924214550269215
-0.008026102888086643,-0.2447443584578291,0.07002167139158035
-0.008024102888086642,-0.4284342003324397,0.2876084471212557
-0.008022102888086642,-0.3450620580793876,0.611980117401341
-0.008020102888086642,0.151442772817853,-0.8773176752468522
-0.008018102888086642,-0.02987469102526353,0.3267740667524001
-0.008016102888086643,-0.2430498027208815,-0.1067257402778665
-0.008014102888086643,-0.1264643680257067,-0.2104978948567847
-0.008012102888086643,0.1965179554180803,0.02784331178859712
-0.008010102888086642,-0.08477829689912768,0.2889474426642075
-0.008008102888086642,0.2470157163762297,-0.03241148764423604
-0.008006102888086642,0.1107734351332562,0.1784803103705715
-0.008004102888086641,-0.2877860741737636,-0.06019564516048841
-0.008002102888086643,-0.1295145683520568,-0.06354313401786499
-0.008000102888086643,0.02909584861723606,-0.02002577887193145
-0.007998102888086642,0.005033157153956818,0.3562319686975379
-0.007996102888086642,-0.05630976052003674,0.3224223312380037
-0.007994102888086642,-0.1190083227835108,0.4101265393013498
-0.007992102888086642,-0.1352760578570889,0.02282207850253865
-0.007990102888086643,0.2785344530814637,0.04692399827565
-0.007988102888086643,-0.07189967329890334,0.4308809702169288
-0.007986102888086643,0.02469000370142437,0.2394046075749891
-0.007984102888086642,0.2446433383446388,0.1881880280570809
-0.007982102888086642,0.2415931380183077,0.0827421290496229
-0.007980102888086642,0.2748064304608036,-0.07023811173259059
-0.007978102888086641,0.7655497718523872,0.007088880872829014
-0.007976102888086643,0.4537515162721509,-0.02471226327224846
-0.007974102888086643,0.1283968147966842,0.19655675020053
-0.007972102888086642,0.5510190155672365,0.4245207413880822
-0.007970102888086642,0.03214604894356723,0.3307910533814528
-0.007968102888086642,-0.2820245846685434,0.6742434101486018
-0.007966102888086642,0.3049695225765514,-0.2148496303712252
-0.007964102888086643,0.3697015517241874,0.2253451543737945
-0.007962102888086643,0.1656770410074913,0.247773329718428
-0.007960102888086643,-0.04173658118312114,0.4553176388759747
-0.007958102888086642,-0.484015628501141,0.3887026106141201
-0.007956102888086642,-0.231526823710394,0.310706120237175
-0.007954102888086642,0.01858960304877944,0.7381804473243094
-0.007952102888086642,0.05688656270148733,0.203586476800817
-0.007950102888086643,-0.1617111273520478,-0.2587017344028881
-0.007948102888086643,-0.6473708015333228,-0.06990336284697365
-0.007946102888086642,-0.2772798286053616,0.3348080400103083
-0.007944102888086642,-0.1834014407838356,0.4107960370728256
-0.007942102888086642,0.07823796498590493,0.3471937487826129
-0.007940102888086642,-0.01360695595146923,0.1721200815417376
-0.007938102888086641,-0.1651002388258213,0.3455200043540976
-0.007936102888086643,-0.1051129657413628,0.7294769762951909
-0.007934102888086643,-0.03597509167782893,-0.1197809468218441
-0.007932102888086642,0.06129240761739843,-0.4180422040143683
-0.007930102888086642,0.06027567417528804,0.01880509187367215
-0.007928102888086642,0.3324213255135026,-0.3695036155823638
-0.007926102888086642,0.1555097065862399,0.1972262479718153
-0.007924102888086643,0.03519624926995311,-0.221879356971732
-0.007922102888086643,0.0775601426911454,0.2561420518616698
-0.007920102888086642,0.164321396417918,0.4409234367892423
-0.007918102888086642,-0.2064473988050044,0.2859347026925658
-0.007916102888086642,-0.4752039386695176,0.4000840727292109
-0.007914102888086642,-0.1634056830888988,0.1041660577367185
-0.007912102888086641,0.05451418466998857,-0.1904129617124036
-0.007910102888086643,0.03858536074360695,0.1406536862821398
-0.007908102888086643,0.1446645498704504,0.3274435645240732
-0.007906102888086642,-0.0502093598673744,-0.3818893243546684
-0.007904102888086642,0.1375474157756777,0.5557423045973633
-0.007902102888086642,0.04773596172259321,-0.2295785813438957
-0.007900102888086642,-0.1949244197944004,-0.3604653956671137
-0.007898102888086643,-0.151882704078433,0.3545582242685229
-0.007896102888086643,0.1494093059334953,-0.2222141058573983
-0.007894102888086642,0.5306843467250287,-0.4126862218425609
-0.007892102888086642,0.06332587450161921,-0.09367053373428309
-0.007890102888086642,-0.02648557955146529,-0.001614590156343537
-0.007888102888086642,0.01181138010133692,0.2126246967160004
-0.007886102888086641,-0.03766964741475187,0.3187400934948877
-0.007884102888086643,-0.1966189755311984,0.322422331238002
-0.007882102888086643,-0.3223550112055889,0.1758023192847764
-0.007880102888086642,-0.395559819037537,0.07169541582027014
-0.007878102888086642,0.2483713609657103,0.02817806067433509
-0.007876102888086642,-0.1393429916257186,-0.3045623317491992
-0.007874102888086642,-0.1247698122885985,-0.138526884423213
-0.007872102888086643,0.3249652802711552,-0.2329260702012324
-0.007870102888086643,0.46256320610357,0.1580606283404866
-0.007868102888086643,0.1009450118597036,0.2062644678869309
-0.007866102888086642,0.1724552639548011,-0.3658213778392462
-0.007864102888086642,0.1924510216496388,-0.2700831965181891
-0.007862102888086642,-0.1972967978260265,0.4784153119919172
-0.007860102888086641,-0.2315268237102384,0.529297142623768
-0.007858102888086643,0.1107734351332818,-0.1221241890217136
-0.007856102888086643,0.2446433383446388,-0.1857264773122227
-0.007854102888086642,0.2426098714604181,0.5105512050227384
-0.007852102888086642,0.2737896970184701,-0.01366555004291017
-0.007850102888086642,0.7523322371050938,0.2691972584056678
-0.007848102888086642,0.2426098714603621,0.2698667561771358
-0.007846102888086643,0.1195851249651168,0.2527945630045154
-0.007844102888086643,0.5455964372091207,-0.0508226763596859
-0.007842102888086643,0.05349745122788543,-0.03174198987276012
-0.007840102888086642,-0.2871082518790954,0.4553176388759747
-0.007838102888086642,0.4808644080616196,0.2618327829194326
-0.007836102888086642,0.381902353029442,0.3733041618701553
-0.007834102888086641,0.1629657518283482,0.3324647978100945
-0.007832102888086643,-0.03326380249877867,0.2266841499169947
-0.007830102888086643,-0.4728315606379267,-0.1221241890220099
-0.007828102888086642,0.06061458532265816,-0.4039827508133739
-0.007826102888086642,0.1151792800492491,-0.15660332425302
-0.007824102888086642,0.08976094399648936,0.17848031037068
-0.007822102888086642,0.08399945449124985,0.2548030563189758
-0.007820102888086643,0.1999070668917289,0.3435115110394549
-0.007818102888086643,0.01587831386988467,0.05060623601891173
-0.007816102888086643,-0.06986620641484195,0.2855999538068279
-0.007814102888086642,-0.4511412472062384,0.4231817458451302
-0.007812102888086642,-0.6893957838074399,0.4027620638151146
-0.007810102888086643,-0.2233929561735109,-0.05082267635982395
-0.007808102888086642,-0.007506555298737998,0.3050153891796297
-0.007806102888086642,0.2232919360603206,-0.1867307239694365
-0.007804102888086642,0.2256643140919115,0.2527945630045076
-0.007802102888086642,-0.05834322740425753,-0.1331709022513626
-0.007800102888086642,-0.2308490014156538,0.293968675950277
-0.007798102888086642,-0.4308065783640306,0.1838362925424874
-0.007796102888086642,-0.2688070499211084,-0.03241148764423604
-0.007794102888086642,-0.11697485589929,-0.04647094084523045
-0.007792102888086642,0.2626056291552558,-0.05249642078851376
-0.007790102888086643,0.2222752026182102,-0.1867307239694365
-0.007788102888086642,-0.2477945587841603,0.2621675318051705
-0.007786102888086642,-0.2383050466577966,-0.1204504445933201
-0.007784102888086643,-0.2871082518790954,-0.147565104338095
-0.007782102888086642,-0.06613818379377052,0.1717853326559208
-0.007780102888086642,-0.1854349076680563,0.3230918290094796
-0.007778102888086642,-0.3159156994055565,-0.38490206432631
-0.007776102888086642,-0.04817589298315361,0.5547380579401494
-0.007774102888086642,0.07044300859639194,-0.2192013658860189
-0.007772102888086642,-0.1396819027730888,-0.3755290955256472
-0.007770102888086643,0.2643001848921064,0.1764718170562523
-0.007768102888086642,0.401220288429639,-0.2071504059994522
-0.007766102888086642,0.3253041914187298,-0.4167032084714165
-0.007764102888086643,0.5127220559144118,-0.09199678930559328
-0.007762102888086642,0.1314470151230154,0.02114833407383788
-0.007760102888086642,-0.1091798995097771,0.204925472343979
-0.007758102888086643,0.02197871452246333,0.2999941558935603
-0.007756102888086642,0.08806638825963871,0.3247655734381695
-0.007754102888086642,-0.3311667010372123,0.2129594456016901
-0.007752102888086642,-0.374547327900589,0.4097917904156118
-0.007750102888086642,-0.04987044872000426,0.046589249389923
-0.007748102888086642,0.1405976161020089,0.7465491694680016
-0.007746102888086642,-0.3518402810267903,0.2979856625791325
-0.007744102888086643,-0.58535006156481,0.09445834005045156
-0.007742102888086642,-0.327777589563511,0.4998392406791237
-0.007740102888086642,0.1853338875548661,0.2373961142605614
-0.007738102888086643,0.1039952121860348,-0.1224589379077478
-0.007736102888086642,-0.2532171371420824,-0.2125063881712596
-0.007734102888086642,-0.338283835131985,-0.09869176702035252
-0.007732102888086643,-0.3240495669424396,-0.1073952380495395
-0.007730102888086642,-0.3237106557950694,0.1031618110796386
-0.007728102888086642,-0.2216984004366603,0.5035214784222412
-0.007726102888086642,0.2887017875027558,0.2839262093781381
-0.007724102888086642,0.2453211606393791,-0.6527011729166796
-0.007722102888086642,0.07857687613327506,-0.3825588221261443
-0.007720102888086642,0.07586558695431402,0.2511208185758178
-0.007718102888086643,-0.05630976052003674,0.5463693357967003
-0.007716102888086642,-0.07528878477276403,0.2748879894632131
-0.007714102888086642,-0.1867905522575369,0.540009106967679
-0.007712102888086643,0.4967932319880157,0.5199241738234014
-0.007710102888086642,0.08061034301749584,0.4596693743905681
-0.007708102888086642,-0.2572840709105239,0.3177358468376722
-0.007706102888086642,-0.1600165716152966,-0.03073774321554624
-0.007704102888086642,-0.2406774246893875,-0.01500454558586202
-0.007702102888086642,-0.09664018705708223,0.06700893141993867
-0.007700102888086642,0.2727729635763597,0.2762269850061649
-0.007698102888086642,-0.0973180093518225,-0.1194461979361062
-0.007696102888086642,0.08027143187012571,0.04056376944663968
-0.007694102888086642,0.09111658858596987,-0.182378988454843
-0.007692102888086643,0.1263633479124634,0.3605837042121314
-0.007690102888086642,0.02367327025931398,-0.09500952927723494
-0.007688102888086642,-0.05630976052003674,-0.5465857761377457
-0.007686102888086643,-0.4335178675429916,0.3327995466958805
-0.007684102888086642,-0.6961740067548425,0.09111085119307194
-0.007682102888086642,-0.2328824682998746,0.4971612495932199
-0.007680102888086642,-0.03292489135149776,0.03721628058926006
-0.007678102888086642,0.3053084337238922,0.4656948543338515
-0.007676102888086642,0.2981912996291194,0.04290701164680542
-0.007674102888086642,-0.05292064904633544,-0.1408701266233358
-0.007672102888086643,-0.2284766233840629,-0.3172827894072417
-0.007670102888086642,-0.4260618223008488,0.1999042390579096
-0.007668102888086642,-0.174250839804842,-0.004292581242247233
-0.007666102888086643,-0.08003354083594585,0.6096368752011752
-0.007664102888086642,-0.001406154646075655,-0.438461886044384
-0.007662102888086642,0.2266810475340219,0.2206586699736633
-0.007660102888086643,-0.1922131306154589,0.4318852168743172
-0.007658102888086642,-0.293886474826498,0.1329544619103172
-0.007656102888086642,-0.0996903873834134,0.03152554953171471
-0.007654102888086642,-0.05529302707792635,-0.003288334585033347
-0.007652102888086642,-0.07020511756221208,0.152035148397381
-0.007650102888086642,0.002999690269736037,0.03989427167516375
-0.007648102888086642,-0.1406986362151992,-0.06588637621803224
-0.007646102888086643,-0.1857738188154265,0.2350528720603956
-0.007644102888086642,0.03045149320671658,-0.05283116967425173
-0.007642102888086642,-0.5311242779855891,0.8861394548207318
-0.007640102888086643,-0.439618268195654,0.2156374366875938
-0.007638102888086642,-0.182045796194355,0.7488924116681673
-0.007636102888086642,-0.4497856026167579,0.6749129079200777
-0.007634102888086643,-0.3182880774371474,-0.1154292113072506
-0.007632102888086642,-0.1834014407838356,0.3887026106141201
-0.007630102888086642,-0.2274598899419525,0.09981432222225896
-0.007628102888086642,0.01079464665924903,0.3850203728710027
-0.007626102888086642,0.2629445403026259,-0.05082267635982395
-0.007624102888086642,0.09789481153337248,0.355562470926062
-0.007622102888086642,0.09552243350178156,-0.02437751438652495
-0.007620102888086643,-0.3216771889108487,0.5517253179685078
-0.007618102888086642,-0.3257441226792902,0.3083628780370093
-0.007616102888086642,-0.1478157703099719,0.09077610230733399
-0.007614102888086643,0.2700616743973986,0.4981654962504338
-0.007612102888086642,-0.2647401161526668,0.170111588227231
-0.007610102888086642,-0.1756064843943226,-0.1134207179928229
-0.007608102888086642,0.1558486177336647,-0.200455428284693
-0.007606102888086642,-0.002083976940815915,-0.1013697581062562
-0.007604102888086642,-0.04139767003575101,-0.06622112510377021
-0.007602102888086642,-0.1661169722679589,0.1858447858569152
-0.007600102888086642,0.1805891314916842,0.4951527562787921
-0.007598102888086642,-0.1752675732469524,0.3669439330411527
-0.007596102888086642,-0.4416517350798747,-0.4900132144480301
-0.007594102888086643,-0.5633208369857514,-0.3688341178108879
-0.007592102888086642,-0.3569239482373422,-0.1130859691070849
-0.007590102888086642,0.1666937744495089,0.108517793251446
-0.007588102888086643,0.7445372807155808,0.2762269850061649
-0.007586102888086642,0.2690449409552882,0.6471287504038269
-0.007584102888086642,0.09687807809126209,0.4312157191028414
-0.007582102888086642,0.09958936727022313,0.3706261707842703
-0.007580102888086642,-0.08545611919386793,0.02282207850252769
-0.007578102888086642,-0.1149413890150693,0.1483529106542635
-0.007576102888086642,0.006727712890807469,-0.4367881416156942
-0.007574102888086643,0.263283451449996,0.2614980340336946
-0.007572102888086642,0.1511038616704829,-0.1522515887384265
-0.007570102888086642,0.09653916694389196,0.09077610230733399
-0.007568102888086643,0.2643001848921064,-0.4983819365914792
-0.007566102888086642,0.08298272104908676,-0.1800357462546773
-0.007564102888086642,-0.1478157703099719,-0.0002755946133916887
