OFDM Simulation/Recieved_waveform.csv

#Digilent WaveForms Oscilloscope Acquisition
#Device Name: Discovery2
#Serial Number: SN:210321B2DDFB
#Date Time: 2026-06-10 20:10:42.258
#Sample rate: 500000Hz
#Samples: 8192
#Trigger: Source: Channel 1 Type: Edge Condition: Rising Level: 0 V Hyst.: Auto HoldOff: 0 s
#Channel 1: Range: 500 mV/div Offset: 0 V Sample Mode: Average
#Channel 2: Range: 500 mV/div Offset: 0 V Sample Mode: Average
#Wavegen Channel 1: Enabled
#Mode: Custom
#Type: ad2_q_waveform.csv
#Frequency: 367.6470588 Hz
#Period: 2.72 ms
#Amplitude: 1 V
#Offset: 0 V
#Phase: 0 °
#Wavegen Channel 2: Enabled
#Mode: Custom
#Type: ad2_q_waveform.csv
#Frequency: 367.6470588 Hz
#Period: 2.72 ms
#Amplitude: 1 V
#Offset: 0 V
#Phase: 0 °

Time (s),Channel 1 (V),Channel 2 (V)
-0.008191687576875769,-0.1756064843943226,-0.2074851548851902
-0.008189687576875769,-0.1400208139205668,-0.4829834878474879
-0.00818768757687577,-0.3772586170794421,-0.3838978176691412
-0.00818568757687577,-0.4267396445955665,-0.1020392558778603
-0.00818368757687577,-0.1108744552466277,-0.06655587398950817
-0.008181687576875769,0.2375262042498661,0.1108610354516117
-0.008179687576875769,0.1975346888601907,0.2250104054882568
-0.008177687576875769,0.06095349646997913,0.1644208571696658
-0.008175687576875769,-0.04715915954095569,0.1209035020237531
-0.00817368757687577,0.1453423721651032,0.1265942330812933
-0.00817168757687577,-0.1190083227835108,-0.09601377593444883
-0.00816968757687577,-0.02479102381461464,0.07136066693453219
-0.008167687576875769,-0.2498280256683811,0.2183154277734975
-0.008165687576875769,-0.16882826144692,-0.1830484862263189
-0.008163687576875769,-0.1484935926047479,-0.1207851934790767
-0.00816168757687577,-0.2271209787945466,-0.1619593064248087
-0.00815968757687577,0.01825069190128031,-0.1355141444515404
-0.00815768757687577,0.1439867275757102,-0.1355141444515283
-0.008155687576875769,-0.06071560543584843,-0.2633882188034299
-0.008153687576875769,-0.2328824682998746,-0.03776746981604344
-0.008151687576875769,0.1588988180599051,0.284595707149546
-0.008149687576875769,-0.04071984774107225,0.1349629552246165
-0.00814768757687577,-0.1759453955416312,-0.1475651043379665
-0.00814568757687577,0.2375262042496781,-0.2459812767450111
-0.00814368757687577,0.1107734351334374,-0.1181072023931543
-0.008141687576875769,-0.3867481292059137,-0.03441998095866382
-0.008139687576875769,-0.2033971984786732,0.06633943364846276
-0.008137687576875769,0.1060286790702351,-0.03274623652998634
-0.008135687576875768,0.06095349647005033,-0.05986089627465638
-0.00813368757687577,0.1094177905439349,0.1436664262538394
-0.00813168757687577,-0.2128867106050369,0.2253451543739947
-0.008129687576875769,-0.4402960904903942,0.1901965213715087
-0.008127687576875769,-0.05393738248844583,-0.1940951994556717
-0.008125687576875769,-0.03563618053067303,-0.472271523503866
-0.008123687576875769,-0.5067226753748839,-0.3574526556956334
-0.00812168757687577,-0.3840368400270084,0.002737145358086168
-0.00811968757687577,-0.2959199417107589,0.2360571187175034
-0.00811768757687577,-0.3657356380689656,-0.3085793183780547
-0.008115687576875769,0.0138448469855802,-0.3454016958092305
-0.008113687576875769,0.2592165176815545,-0.1937604505699337
-0.008111687576875769,0.0396020941856788,-0.210163145971191
-0.008109687576875768,-0.02919686873040136,-0.4237329350717853
-0.00810768757687577,0.02570673714350979,-0.14153962439494
-0.00810568757687577,-0.08918414181493937,0.3625921975265591
-0.008103687576875769,-0.1993302647102317,-0.121119942364796
-0.008101687576875769,-0.0973180093518225,-0.0866408071337859
-0.008099687576875769,0.1260244367650933,-0.3032233362062473
-0.008097687576875769,0.2581997842391884,-0.1197809468218642
-0.00809568757687577,-0.3040538092473462,-0.163967799739235
-0.00809368757687577,-0.4968942521011183,-0.1120817224498946
-0.00809168757687577,-0.3206604554687383,-0.02605125881521476
-0.008089687576875769,-0.0288579575830562,-0.09266628707706921
-0.008087687576875769,-0.1240919899940628,-0.1847222306550088
-0.008085687576875769,-0.05258173789899459,-0.1689890330252673
-0.008083687576875768,-0.116974855899258,-0.0431234519878863
-0.00808168757687577,-0.04648133724633502,-0.1211199423647605
-0.00807968757687577,-0.2867693407317253,-0.07492459613295722
-0.008077687576875769,-0.3874259515006539,-0.02437751438652495
-0.008075687576875769,0.01858960304876203,-0.04981842970261007
-0.008073687576875769,0.02299544796457371,-0.2168581236858531
-0.008071687576875769,-0.2538949594368232,-0.0869755560194348
-0.00806968757687577,-0.2552506040263026,0.1088525421370949
-0.00806768757687577,-0.05292064904642743,-0.113085969106984
-0.00806568757687577,0.114840368901879,0.1001490711079969
-0.008063687576875769,-0.02818013528831594,-0.02672075658669069
-0.008061687576875769,-0.4036936865744202,-0.02672075658669069
-0.008059687576875769,-0.2064473988049241,0.147013915111165
-0.008057687576875769,-0.02987469102513777,-0.1753492618544706
-0.00805568757687577,0.03350169353301893,-0.4498433481593498
-0.00805368757687577,0.02977367091197632,-0.2392862990302966
-0.008051687576875769,0.07857687613327506,-0.2687442009752372
-0.008049687576875769,0.05620874040684647,-0.4053217463563258
-0.008047687576875769,0.05824220729106726,-0.4408051282445498
-0.008045687576875769,0.05180289549102677,-0.2352693124013555
-0.00804368757687577,0.03417951582779603,-0.04714043861679193
-0.00804168757687577,0.08264380990169458,-0.2312523257725018
-0.00803968757687577,0.1090788793965868,-0.1023740047634701
-0.008037687576875769,0.2548106727657428,-0.0006103434991296508
-0.008035687576875769,-0.01191240021454969,0.02081358518809992
-0.008033687576875769,-0.2298322679735509,0.08207263127806126
-0.008031687576875769,-0.2464389141946516,-0.1063909913923628
-0.00802968757687577,-0.1844181742259741,-0.1880697195123512
-0.00802768757687577,0.01858960304876203,-0.08931879821968959
-0.008025687576875769,0.328354391745061,0.1118652821088256
-0.008023687576875769,0.2785344530816519,-0.289163883005253
-0.008021687576875769,0.1853338875548661,-0.4096734818709192
-0.008019687576875769,0.09111658858606173,-0.1445523643664013
-0.00801768757687577,0.2931076324184756,-0.03006824544412236
-0.00801568757687577,-0.004117443824901534,-0.006970572328161433
-0.00801368757687577,-0.3948819967427968,0.04357650941828134
-0.008011687576875769,0.05688656270158673,0.02750856290285916
-0.008009687576875769,0.06468151909109972,0.008093127530057363
-0.008007687576875769,0.09145549973330795,-0.05182692301696995
-0.008005687576875769,0.02096198108014241,0.09747108002209019
-0.00800368757687577,-0.4419906462270343,0.09077610230733703
-0.00800168757687577,-0.397932197069128,-0.3772028399543369
-0.007999687576875769,0.01452266928032046,-0.2198708636574948
-0.007997687576875769,-0.2837191404053941,-0.03843696758751936
-0.007995687576875769,-0.6239859323650048,0.05261472933320632
-0.007993687576875769,-0.3071040095739485,0.2785702272061308
-0.00799168757687577,-0.3409951243109307,-0.1609550597674136
-0.00798968757687577,-0.3328612567740667,-0.03709797204462384
-0.00798768757687577,-0.0783389850990952,0.2394046075749891
-0.007985687576875769,-0.03360271364623801,0.08876760899290621
-0.007983687576875769,-0.03360271364623801,0.02047883630236196
-0.007981687576875769,-0.03563618053045865,-0.004962079013768673
-0.007979687576875769,-0.0352972693830882,-0.1050519958493294
-0.00797768757687577,-0.03428053594097875,-0.007305321213933347
-0.00797568757687577,-0.03461944708834841,0.2902864382071594
-0.00797368757687577,-0.03495835823571854,0.08408112459257475
-0.007971687576875769,-0.03428053594097828,0.0633266936768211
-0.007969687576875769,-0.03461944708834841,0.08977185565012009
-0.007967687576875769,-0.03495835823571854,-0.1783620018259653
-0.00796568757687577,-0.03495835823571854,-0.1294886645082673
-0.00796368757687577,-0.03428053594097859,-0.08496706270511634
-0.00796168757687577,-0.03495835823571854,-0.1867307239694365
-0.007959687576875769,-0.03461944708834841,-0.1572728220244959
-0.007957687576875769,-0.03428053594097828,-0.1261411756508654
-0.007955687576875769,0.322592902239821,-0.2951893629483469
-0.007953687576875769,0.4374837811980269,0.1212382509094267
-0.00795168757687577,-0.03733073626709354,-0.01466979670006224
-0.00794968757687577,-0.03631400282519952,-0.2841426497190609
-0.00794768757687577,-0.03495835823571854,-0.315274296092814
-0.007945687576875769,-0.03529726938308866,-0.08797980267673775
-0.007943687576875769,-0.03597509167782893,0.07002167139158035
-0.007941687576875769,-0.03529726938308851,-0.2466507745164386
-0.007939687576875768,-0.03495835823571838,-0.04178445644482531
-0.00793768757687577,-0.03461944708834856,0.120234004252201
-0.00793568757687577,-0.03529726938308866,-0.01199180561422036
-0.007933687576875769,-0.03495835823571854,-0.05919139850327301
-0.007931687576875769,-0.03529726938308866,0.1466791662255736
-0.007929687576875769,-0.03529726938308866,-0.08195432273345442
-0.007927687576875769,-0.03461944708834887,-0.4926912055338183
-0.00792568757687577,-0.03563618053045834,-0.2386168012589362
-0.00792368757687577,-0.03631400282519875,-0.2817994075189981
-0.00792168757687577,-0.03495835823571854,-0.3845673154405721
-0.007919687576875769,-0.03563618053045881,-0.4541950836740682
-0.007917687576875769,-0.03529726938308866,-0.2888291341195149
-0.007915687576875769,-0.03461944708834826,-0.08262382050499839
-0.007913687576875768,-0.0342805359409789,-0.2322565724297578
-0.00791168757687577,-0.03563618053045819,-0.1408701266233773
-0.00790968757687577,-0.03631400282519906,0.0827421290496229
-0.007907687576875769,-0.03563618053045881,-0.04914893193113415
-0.007905687576875769,-0.03495835823571854,-0.2248920969435642
-0.007903687576875769,-0.03461944708834841,0.0003939031580842354
-0.007901687576875769,-0.03394162479360877,0.03453828950316136
-0.00789968757687577,-0.03529726938308805,-0.394275033126778
-0.00789768757687577,-0.03428053594097875,-0.3246472648935086
-0.00789568757687577,-0.03461944708834841,-0.1351793955657904
-0.007893687576875769,-0.03529726938308866,-0.003957832356509271
-0.007891687576875769,0.531362169019769,0.2708710028343576
-0.007889687576875769,0.505266010672022,-0.02069527664359568
-0.007887687576875769,-0.03766964741467912,-0.4347796483012284
-0.00788568757687577,-0.03665291397256965,-0.3514271757525517
-0.00788368757687577,-0.03563618053045881,-0.2834731519477076
-0.007881687576875769,-0.03529726938308866,0.2916254337501112
-0.007879687576875769,-0.03428053594097828,0.346858999896875
-0.007877687576875769,-0.03428053594097828,0.178815059256418
-0.007875687576875769,-0.03563618053045865,0.1125347798804203
-0.00787368757687577,-0.03529726938308882,0.3736389107557932
-0.00787168757687577,-0.03563618053045865,0.232709629860294
-0.00786968757687577,-0.03495835823571854,-0.1197809468218441
-0.007867687576875769,-0.03495835823571854,-0.01701303890028979
-0.007865687576875769,-0.03529726938308866,-0.2111673926283078
-0.007863687576875769,-0.03495835823571884,0.01847034298794423
-0.007861687576875769,-0.0356361805304585,0.04056376944659233
-0.00785968757687577,-0.03495835823571884,-0.06354313401781916
-0.00785768757687577,-0.03428053594097828,0.02650431624564527
-0.007855687576875769,-0.03597509167782893,0.03721628058926006
-0.007853687576875769,-0.03529726938308866,-0.09032304487690347
-0.007851687576875769,-0.03495835823571854,-0.1927562039127199
-0.007849687576875769,-0.03529726938308851,0.1788150592564066
-0.00784768757687577,-0.03495835823571869,0.1537088928260822
-0.00784568757687577,-0.03428053594097859,0.05562746930489257
-0.00784368757687577,-0.03461944708834841,-0.01232655449995832
-0.007841687576875769,-0.03461944708834841,-0.1696585307968005
-0.007839687576875769,-0.03495835823571854,-0.03743272093030547
-0.007837687576875769,-0.03563618053045865,-0.3346897314656978
-0.007835687576875769,-0.03529726938308851,-0.5151193808782796
-0.00783368757687577,-0.03495835823571869,-0.3002105962347034
-0.00783168757687577,-0.03461944708834841,-0.3176175382929797
-0.007829687576875769,-0.03428053594097828,-0.4662460435606348
-0.007827687576875769,0.1111123462808076,-0.2479897700594836
-0.007825687576875769,0.02977367091197632,0.1416579329395042
-0.007823687576875769,-0.1451044811309766,-0.07057286061837956
-0.00782168757687577,-0.06986620641487616,-0.1053867447350959
-0.00781968757687577,0.1775389311652406,0.03922477390362207
-0.00781768757687577,-0.2091586879839654,0.1011533177652108
-0.007815687576875769,-0.1583220158784459,-0.06053039404622485
-0.007813687576875769,0.1294135482387946,0.1225772464524404
-0.007811687576875769,-0.106468610330816,0.04290701164680542
-0.007809687576875769,-0.09020087525704976,-0.4749495145898218
-0.007807687576875768,0.03451842697515814,-0.1977774371987893
-0.007805687576875768,-0.1773010401311732,0.2601590384907427
-0.007803687576875769,-0.2738907171316603,0.03989427167516375
-0.007801687576875768,-0.3420118577530565,-0.1499083465382607
-0.007799687576875768,-0.4379237124588033,-0.2486592678309595
-0.007797687576875769,0.06671498597532051,-0.03341573430144993
-0.007795687576875768,0.3781743304084701,0.09412359116471361
-0.007793687576875768,0.1741498196916518,-0.1187767001646303
-0.007791687576875769,-0.1566274601415953,0.08608961790700252
-0.007789687576875769,-0.1722173729206213,-0.09032304487690347
-0.007787687576875768,0.1480536613441517,-0.06253888736065263
-0.007785687576875769,0.1067065013649959,-0.03207673875849808
-0.007783687576875769,-0.1667947945626992,-0.2580322366316224
-0.007781687576875768,-0.5721325268173748,0.002402396472512008
-0.007779687576875768,-0.1874683745522771,-0.1134207179928229
-0.007777687576875769,0.004355334859216558,-0.1937604505699337
-0.007775687576875768,-0.1722173729206213,0.03520778727483229
-0.007773687576875768,-0.2196649335524395,-0.1780272529402495
-0.007771687576875769,-0.07630551821487443,-0.4056564952420637
-0.007769687576875768,0.08027143187012571,-0.288494385233777
-0.007767687576875768,0.08738856596489844,-0.1465608576808811
-0.007765687576875769,0.02706238173301528,-0.03910646535899528
-0.007763687576875769,0.04265229451204126,0.24911232526139
-0.007761687576875768,0.2497270055551908,0.0914456000788099
-0.007759687576875769,0.1829615095232751,-0.4595510658458756
-0.007757687576875769,0.1517816839652232,-0.3346897314656158
-0.007755687576875768,0.07450994236483349,-0.2014596749419069
-0.007753687576875768,0.005710979448697078,0.2571462985191011
-0.007751687576875769,0.05892002958580751,0.3726346640986981
-0.007749687576875768,0.255488495060483,0.2096119567443105
-0.007747687576875768,0.2941243658606779,0.09546258670766546
-0.007745687576875769,0.05281962893314517,-0.02705550547242865
-0.007743687576875768,-0.3820033731427318,0.0007286520438221974
-0.007741687576875768,-0.1905185748786083,0.1004838199937349
-0.007739687576875769,-0.08240591886753677,-0.09869176702035252
-0.007737687576875769,-0.1278200126151342,-0.1268106734223413
-0.007735687576875768,0.3446221268188273,-0.3504229290952999
-0.007733687576875769,0.304969522576522,-0.1167682068502025
-0.007731687576875769,0.3219150799450285,-0.2068156571137143
-0.007729687576875768,-0.01835171201458216,-0.08028057830476462
-0.007727687576875768,-0.3169324328476668,0.1563868839119746
-0.007725687576875769,-0.1725562840679914,-0.08931879821968959
-0.007723687576875768,-0.06071560543584843,-0.1997859305132171
-0.007721687576875768,-0.05664867166740688,0.152035148397381
-0.007719687576875769,-0.03970311429890036,-0.05517441187441746
-0.007717687576875768,0.140936527249379,-0.08228907161919238
-0.007715687576875768,0.1202629472598011,0.2119551989444762
-0.007713687576875769,0.06163131876476856,-0.1693237819110625
-0.007711687576875769,0.1199240361124309,-0.1626288041963033
-0.007709687576875768,0.1094177905439569,0.05696646484779982
-0.007707687576875768,0.2124467793444765,-0.02437751438652495
-0.007705687576875769,-0.02851904643568607,0.05194523156173039
-0.007703687576875768,0.1063675902176257,0.003741392015463856
-0.007701687576875768,0.1866895321443466,-0.2821341564047557
-0.007699687576875769,0.09179441088071014,-0.3443974491520166
-0.007697687576875768,0.05519200696473608,-0.1150944624215127
-0.007695687576875768,-0.122058523109842,-0.3102530628067446
-0.007693687576875769,-0.03665291397256919,-0.3611348934389148
-0.007691687576875769,0.1534762397020738,0.1182255109378469
-0.007689687576875768,-0.132564768678316,0.329452057838501
-0.007687687576875769,-0.07766116280435495,0.2347181231746577
-0.007685687576875769,0.02469000370142437,0.1868490325141291
-0.007683687576875768,-0.1932298640575693,-0.2463160256307938
-0.007681687576875768,-0.04071984774101076,-0.3403804625231611
-0.007679687576875769,0.00910009092239838,-0.06421263178934243
-0.007677687576875768,-0.2928697413843876,0.01010162084448513
-0.007675687576875768,-0.1440877476889005,0.06500043810551091
-0.007673687576875769,-0.4236894442692578,-0.2489940167166975
-0.007671687576875768,-0.3728527721637383,-0.07994582941902666
-0.007669687576875768,0.3093753674923337,0.01277961193038883
-0.007667687576875769,0.05586982925947634,-0.1485693509953089
-0.007665687576875769,-0.08037245198331598,-0.129823413393983
-0.007663687576875768,0.03316278238567762,-0.2299133302296336
-0.007661687576875769,0.1283968147966842,-0.1529210865099024
-0.007659687576875769,-0.4104719095218228,0.2440910919753206
-0.007657687576875768,-0.3765807947848098,0.3522149820686823
-0.007655687576875768,-0.2206816669945499,-0.2744349320327826
-0.007653687576875769,-0.11697485589929,-0.2868206408050872
-0.007651687576875768,-0.4365680678693228,-0.1114122246783951
-0.007649687576875768,0.1568653511757751,-0.06421263178934243
-0.007647687576875769,-0.02512993496198477,-0.003288334585033347
-0.007645687576875768,-0.2538949594368226,-0.04211920533063694
-0.007643687576875768,-0.06274907232006922,-0.02973349655833235
-0.007641687576875769,0.1765221977232427,-0.2031334193705967
-0.007639687576875769,0.1012839230070738,0.05027148713304058
-0.007637687576875768,-0.1132468332782186,0.2246756566025188
-0.007635687576875769,-0.3098152987528941,0.05194523156173039
-0.007633687576875769,-0.2166147332261083,-0.147230355452357
-0.007631687576875768,-0.4491077803220176,-0.1636330508535171
-0.007629687576875768,0.001305134532885386,-0.3387067180944713
-0.007627687576875769,0.2829402979974636,-0.4414746260160256
-0.007625687576875768,0.1544929731441842,-0.1522515887384265
-0.007623687576875768,0.07078191974376206,0.2206586699736633
-0.007621687576875769,0.1971957777128206,0.2082729612013587
-0.007619687576875768,-0.01055675562506917,0.07504290467764976
-0.007617687576875768,-0.1427321030994199,-0.0407802097876851
-0.007615687576875769,-0.3050705426897123,0.1198992553665367
-0.007613687576875769,-0.5158732763539332,-0.07927633164755073
-0.007611687576875768,-0.06952729526747183,-0.05350066744572765
-0.007609687576875768,0.2378651153972362,-0.2021291727133828
-0.007607687576875769,-0.3786142616690305,-0.2024639215991207
-0.007605687576875768,-0.2820245846685434,-0.1435481177092394
-0.007603687576875768,0.05790329614369712,-0.2202056125432327
-0.007601687576875769,-0.2118699771629265,-0.0213647744148833
-0.007599687576875768,-0.1718784617732511,0.1486876595400014
-0.007597687576875768,-0.2308490014156538,0.00441088978693978
-0.007595687576875769,-0.1474768591626018,-0.306570825063627
-0.007593687576875769,0.1192462138176907,0.1717853326559208
-0.007591687576875768,0.07620449810168414,-0.01433504781438609
-0.007589687576875769,0.09687807809126209,-0.2021291727133828
-0.007587687576875769,0.1677105078916193,0.1985652435149578
-0.007585687576875768,0.02096198108035294,0.1865142836283911
-0.007583687576875768,0.1361917711861972,-0.3865758087549999
-0.007581687576875769,-0.02682449069883542,-0.26171447437474
-0.007579687576875768,-0.4179279547639656,0.1329544619103172
-0.007577687576875768,-0.2854136961422447,0.0395595227894258
-0.007575687576875769,0.138225238070418,0.1282679775099857
-0.007573687576875768,0.1080621459544764,-0.1612898086533514
-0.007571687576875768,-0.2525393148473421,-0.4692587835322765
