OFDM Simulation/Recieved_waveform.csv

#Digilent WaveForms Oscilloscope Acquisition
#Device Name: Discovery2
#Serial Number: SN:210321B2DDFB
#Date Time: 2026-06-14 10:03:03.549
#Sample rate: 500000Hz
#Samples: 8192
#Trigger: Source: Channel 1 Type: Edge Condition: Rising Level: 0 V Hyst.: Auto HoldOff: 0 s
#Channel 1: Range: 500 mV/div Offset: 0 V Sample Mode: Average
#Channel 2: Range: 500 mV/div Offset: 0 V Sample Mode: Average
#Wavegen Channel 1: Enabled
#Mode: Custom
#Type: ad2_i_waveform.csv
#Frequency: 347.2222222 Hz
#Period: 2.88 ms
#Amplitude: 1 V
#Offset: 0 V
#Phase: 0 °
#Wavegen Channel 2: Enabled
#Mode: Custom
#Type: ad2_q_waveform.csv
#Frequency: 347.2222222 Hz
#Period: 2.88 ms
#Amplitude: 1 V
#Offset: 0 V
#Phase: 0 °

Time (s),Channel 1 (V),Channel 2 (V)
-0.008191174030658251,-0.01530151168825099,-0.333350735922664
-0.008189174030658251,-0.3494679029950699,-0.2526762544598216
-0.008187174030658252,-0.06478253920441945,-0.2670704565465408
-0.008185174030658252,-0.2888028076158441,0.1172212642804582
-0.008183174030658252,-0.3467566138162383,-0.2141801325999494
-0.008181174030658251,-0.06444362805691987,-0.3062360761778889
-0.008179174030658251,0.06637607482795037,-0.2218793569719225
-0.008177174030658251,-0.1064686103308832,-0.1415396243946647
-0.008175174030658251,-0.2542338705842225,0.1814930503423101
-0.008173174030658252,-0.3196437220265981,0.1560521350262482
-0.008171174030658252,-0.3159156994055565,0.05161048267599243
-0.008169174030658252,-0.210514332573446,-0.1057214936208497
-0.008167174030658251,-0.1725562840679914,-0.4726062723896561
-0.008165174030658251,-0.2820245846685434,-0.4310974105581489
-0.008163174030658251,-0.05766540510962083,-0.1686542841395548
-0.008161174030658252,-0.2854136961421412,-0.09869176702038435
-0.008159174030658252,-0.3182880774371324,0.1165517665090592
-0.008157174030658252,-0.1583220158784459,-0.04412769864506472
-0.008155174030658251,0.2731118747237298,0.05428847376189613
-0.008153174030658251,0.8841686734320744,-0.07291610281852945
-0.008151174030658251,0.5913494421040161,0.02851280956007792
-0.008149174030658251,0.00672771289071099,0.03922477390345006
-0.008147174030658252,-0.2054306653627975,-0.483652985618771
-0.008145174030658252,-0.2389828689525216,-0.2007901771705595
-0.008143174030658252,-0.332861256774063,0.117221264280633
-0.008141174030658251,-0.1098577218045173,0.1162170176234191
-0.008139174030658251,-0.2650790273000369,-0.4963734432770515
-0.008137174030658251,-0.2254264230574473,-0.1703280285684406
-0.00813517403065825,0.3998646438398938,-0.5315220762792182
-0.008133174030658252,-0.1820457961940904,0.1704463371126498
-0.008131174030658252,-0.01597933398299125,0.1339587085675311
-0.008129174030658251,0.2066852898391843,0.1450054217968838
-0.008127174030658251,0.1710996193653206,0.01646184967350641
-0.008125174030658251,-0.0244521126673436,-0.2329260702011353
-0.008123174030658251,-0.242371980425964,0.0750429046775843
-0.008121174030658252,0.3605509507449491,-0.06889911618960845
-0.008119174030658252,0.2161748019656135,-0.04981842970261875
-0.008117174030658252,-0.1800123293101343,-0.1104079780211812
-0.008115174030658251,-0.2816856735211733,-0.2024639215991207
-0.008113174030658251,-0.06478253920429,-0.2737654342613066
-0.008111174030658251,-0.01055675562516796,-0.1606203108817967
-0.00810917403065825,-0.2277988010891329,0.0127796119303421
-0.008107174030658252,0.1894008213231179,-0.08998829599111879
-0.008105174030658252,0.3063251671660025,-0.1130859691070849
-0.008103174030658251,0.190417554765418,-0.3845673154405721
-0.008101174030658251,0.4293499136613598,-0.2908376274339427
-0.008099174030658251,0.09416678891230104,0.03286454507466655
-0.008097174030658251,-0.1386651693310405,-0.06387788290371529
-0.008095174030658252,-0.2752463617210787,-0.3075750717207301
-0.008093174030658252,0.2395596711338528,-0.2325913213155714
-0.008091174030658252,-0.07528878477276403,-0.2828036541762317
-0.008089174030658251,-0.4433462908167254,-0.3932707864697591
-0.008087174030658251,-0.1956022420891602,-0.3859063109835239
-0.008085174030658251,-0.02987469102514363,0.08441587347827663
-0.008083174030658251,0.02062306993309655,0.005080387558151135
-0.008081174030658252,0.2707394966920251,-0.5767131758538977
-0.008079174030658252,-0.4067438869007513,-0.2185318681145429
-0.008077174030658251,-0.452835802943089,0.1048355555083284
-0.008075174030658251,0.2202417357339895,-0.1365183911087422
-0.008073174030658251,-0.3535348367636409,-0.2734306853755687
-0.008071174030658251,0.5279730575457368,0.009097374187467925
-0.008069174030658252,-0.199669175857271,0.4415929345605216
-0.008067174030658252,-0.1593387493205747,0.3174010979519908
-0.008065174030658252,0.1690661524810998,0.1831667947710115
-0.008063174030658251,0.3514003497662299,0.2072687145441448
-0.008061174030658251,-0.05766540510951726,0.4623473654764718
-0.008059174030658251,-0.3416729466055801,0.465360105448
-0.008057174030658251,-0.1081631660677536,0.2159721855731109
-0.008055174030658252,-0.2993090531843332,-0.2697484476322302
-0.008053174030658252,-0.03631400282519906,-0.3025538384347715
-0.008051174030658251,0.07112083089113219,-0.2155191281429013
-0.008049174030658251,-0.03766964741467958,-0.1619593064248274
-0.008047174030658251,-0.2274598899419525,0.06700893141993867
-0.008045174030658251,-0.3243884780898048,0.1356324529961816
-0.008043174030658252,-0.3135433213739705,0.04926724047586598
-0.008041174030658252,-0.1986524424155436,-0.1244674312220966
-0.008039174030658252,-0.174250839804842,-0.5097633987065698
-0.008037174030658251,-0.2969366751528292,-0.4006352619559943
-0.008035174030658251,-0.01530151168825099,-0.1552643287100681
-0.008033174030658251,-0.3260830338266556,-0.1007002603346727
-0.008031174030658251,-0.315576788258108,0.135967201881869
-0.008029174030658252,-0.1434099253942385,-0.06153464070334894
-0.008027174030658252,0.146020194459931,0.01244486304465087
-0.008025174030658251,0.7126796328627886,-0.02236902107209718
-0.008023174030658251,0.09145549973334001,-0.1130859691070849
-0.008021174030658251,-0.4663922488378943,-0.02002577887193145
-0.008019174030658251,-0.1989913535626547,-0.3363634758944907
-0.008017174030658252,0.2558274062076463,-0.7434181209514823
-0.008015174030658252,0.2798900976711214,-0.2908376274341485
-0.008013174030658252,-0.1295145683519849,0.2799092227492825
-0.008011174030658251,-0.210514332573446,-0.103378251420684
-0.008009174030658251,-0.1586609270258161,0.3662744352696767
-0.008007174030658251,-0.03529726938298941,0.3585752108974481
-0.008005174030658251,0.182961509523189,-0.2031334193706789
-0.008003174030658252,-0.006489821856541456,-0.3838978176690139
-0.008001174030658252,0.3056473448712623,-0.4223939395289618
-0.007999174030658251,0.4300277359561001,-0.288494385233777
-0.007997174030658251,-0.1589998381731862,0.1316154663673653
-0.007995174030658251,-0.1630667719416277,0.1804888036851078
-0.007993174030658251,0.4737472739665219,-0.1284844178509296
-0.007991174030658252,-0.2406774246890627,0.09479308893608801
-0.007989174030658252,-0.3152378771107823,0.1272637308527571
-0.007987174030658252,-0.2874471630264655,0.1978957457434818
-0.007985174030658251,-0.4494466914693877,0.2430868453181067
-0.007983174030658251,-0.3650578157742253,-0.1144249646500367
-0.007981174030658251,0.05959785188054576,-0.03877171647324453
-0.007979174030658251,0.05519200696464223,-0.01065281007122802
-0.007977174030658252,-0.1512048817835793,0.07839039353498889
-0.007975174030658252,-0.1857738188154265,-0.2821341564047557
-0.007973174030658252,0.1649992187126582,-0.3313422426082362
-0.007971174030658251,-0.1061296991834459,0.1359672018819588
-0.007969174030658251,0.2961578327448986,-0.03375048318718789
-0.007967174030658251,-0.08579503034112064,0.3060196358367172
-0.007965174030658252,0.1724552639546836,0.02817806067446144
-0.007963174030658252,-0.0169960674250155,-0.2463160256306689
-0.007961174030658252,-0.2369494020683161,0.2250104054882568
-0.007959174030658251,0.1233131475861322,0.2019127323723374
-0.007957174030658251,0.03824644959622957,0.2076034634298827
-0.007955174030658251,0.03994100533313246,0.05328422710462272
-0.007953174030658251,0.1548318842914704,-0.07760258721908743
-0.007951174030658252,-0.02987469102508261,-0.5757089291967219
-0.007949174030658252,0.4984877877246261,-0.3115920583498165
-0.007947174030658252,-0.08477829689912768,-0.1612898086533514
-0.007945174030658251,-0.296597764005459,-0.07961108053328869
-0.007943174030658251,0.01248920239609968,-0.2342650657442271
-0.007941174030658251,0.3242874579763699,0.2052602212297468
-0.00793917403065825,-0.2244096896154353,0.2708710028343697
-0.007937174030658252,0.1846560652599398,0.2973161648076445
-0.007935174030658252,0.3619065953347039,-0.03174198987276012
-0.007933174030658251,0.2734507858710999,-0.1160987090787265
-0.007931174030658251,-0.0827448300149069,-0.08831455156247571
-0.007929174030658251,0.3192037907660675,0.1265942330812959
-0.007927174030658251,0.01418375813294001,-0.02136477441490096
-0.007925174030658252,-0.008523288740838065,-0.06019564516046923
-0.007923174030658252,-0.1789955958679463,0.3317953000384884
-0.007921174030658252,-0.1200250562256212,0.6337387949743084
-0.007919174030658251,0.2609110734184051,0.2424173475466308
-0.007917174030658251,-0.02750231299357568,0.04591975161844707
-0.007915174030658251,0.2775177196393863,0.2822524649494657
-0.00791317403065825,-0.0637658057619509,0.3207485868093277
-0.007911174030658252,0.4391783369348649,0.3508759865257168
-0.007909174030658252,0.4076596002296715,0.1326197130245792
-0.007907174030658251,0.2483713609657103,0.2524598141187696
-0.007905174030658251,-0.03699182511993933,0.01813559410219622
-0.007903174030658251,-0.00987893333032891,-0.06555162733229429
-0.007901174030658251,0.07586558695441249,-0.1013697581061687
-0.007899174030658252,0.2924298101237287,0.09111085119298439
-0.007897174030658252,0.05214180663851417,-0.1582770686815964
-0.007895174030658252,-0.5165510986486735,-0.2225488547433985
-0.007893174030658251,-0.418944688206076,-0.005296827899461119
-0.007891174030658251,-0.1996691758576018,-0.3765333421828611
-0.007889174030658251,0.2998858553659566,-0.7778972561824313
-0.007887174030658251,0.2704005855445678,-0.2366083079441384
-0.007885174030658252,-0.17153955062568,0.3230918290092251
-0.007883174030658252,-0.2233929561735109,0.07470815579191181
-0.007881174030658251,-0.1728951952153615,0.1329544619103172
-0.007879174030658251,-0.07664442936224455,0.4533091455615469
-0.007877174030658251,0.2026183560707427,-0.2576974877458845
-0.007875174030658251,-0.03733073626712868,-0.3822240732404282
-0.007873174030658252,0.3602120395976723,-0.4300931639009132
-0.007871174030658252,0.4113876228507196,-0.2687442009753106
-0.007869174030658252,-0.2267820676472122,0.1741285748560865
-0.007867174030658251,-0.11697485589929,0.1587301261121403
-0.007865174030658251,0.5093329444407105,-0.1452218621379293
-0.007863174030658251,-0.07393314018315436,-0.3487491846666108
-0.007861174030658251,0.2100744013129139,-0.3500881802094055
-0.007859174030658252,0.2724340524289611,-0.005966325671093509
-0.007857174030658252,0.08535509908067766,-0.02303851884357311
-0.007855174030658251,0.01791178075402176,-0.04144970755916102
-0.007853174030658251,0.5500022821251261,-0.1974426883130513
-0.007851174030658251,0.3134423012607753,-0.4237329350719137
-0.007849174030658251,-0.3942041744479463,-0.6503579307162489
-0.007847174030658252,-0.1518827040785236,-0.06756012064698702
-0.007845174030658252,-0.1200250562256357,-0.2546847477741578
-0.007843174030658252,0.05824220729106726,0.1138737754232534
-0.007841174030658251,0.2212584691760998,0.2029169790295513
-0.007839174030658251,0.1267022590598335,-0.1696585307968005
-0.007837174030658251,0.05790329614366074,-0.2389515501445437
-0.007835174030658251,-0.02207973463564388,-0.2061461593420249
-0.007833174030658252,-0.0007283323513451075,0.263171778462171
-0.007831174030658252,-0.2074641322471148,-0.1023740047634701
-0.007829174030658251,0.01079464665924903,-0.3808850776974545
-0.007827174030658251,0.3483501494398987,0.5544033090544114
-0.007825174030658251,0.1270411702072037,-0.209493648199618
-0.007823174030658251,0.2903963432394729,0.02616956736000398
-0.007821174030658252,-0.003100710382792859,0.2387351098034165
-0.007819174030658252,0.06671498597528876,0.2159721855733421
-0.007817174030658252,0.2253254029445414,0.1011533177652108
-0.007815174030658251,0.04434685024889191,0.09412359116471361
-0.007813174030658251,0.2063463786918141,0.1275984797385098
-0.007811174030658251,0.1168738357860998,-0.002284087927819461
-0.007809174030658251,-0.1518827040784134,-0.2078199037709282
-0.00780717403065825,-0.07969462968857573,-0.4578773214171857
-0.00780517403065825,-0.3887815960901344,-0.1502430954239987
-0.007803174030658251,-0.4013213085428293,-0.1596160642246616
-0.00780117403065825,-0.2338992017419849,0.05529272041911001
-0.00779917403065825,0.07417103121746337,0.3170663490661964
-0.007797174030658251,-0.3386227462793552,0.04357650941828134
-0.00779517403065825,-0.4402960904903942,-0.2275700880294679
-0.00779317403065825,-0.2399996023946473,-0.4240676839576516
-0.007791174030658251,-0.2806689400790629,0.02985180510302489
-0.007789174030658251,0.135852860038827,-0.1622940553105653
-0.00778717403065825,-0.4186057770587059,-0.3038928339777233
-0.007785174030658251,0.03417951582778801,-0.07961108053328869
-0.007783174030658251,0.4581573611878209,0.5440260935965346
-0.00778117403065825,0.3859692867979831,0.1232467442239163
-0.00777917403065825,0.3009025888080805,0.1038313088511145
-0.007777174030658251,0.08061034301749584,0.196891499086268
-0.00777517403065825,-0.0244521126672445,0.006419383101367552
-0.00777317403065825,0.1063675902176257,-0.07793733610459888
-0.007771174030658251,-0.07325531788854325,-0.01701303890028979
-0.00776917403065825,-0.08579503034123807,0.05997920481944147
-0.00776717403065825,-0.3606519708584136,-0.2730959364898308
-0.007765174030658251,0.05315854008051531,-0.01734778778602775
-0.007763174030658251,0.2870072317659051,0.1450054217968838
-0.00776117403065825,-0.3223550112055889,0.6056198885723196
-0.007759174030658251,0.03384060468041789,-0.009648563414054626
-0.007757174030658251,0.5144166116512624,-0.6573876573170111
-0.00775517403065825,0.1633046629758076,-0.5549544982811947
-0.00775317403065825,0.3246263691239896,-0.1763535085115597
-0.007751174030658251,0.4476511156193468,0.1835015436567495
-0.00774917403065825,-0.03156924676201724,-0.1415396243948117
-0.00774717403065825,-0.3369281905425045,-0.1669805397108968
-0.007745174030658251,-0.2376272243630564,-0.3102530628067446
-0.00774317403065825,-0.3491289918478292,-0.2734306853755687
-0.00774117403065825,0.2246475806498012,-0.3581221534672731
-0.007739174030658251,0.2324425370393141,-0.2858163941478733
-0.007737174030658251,0.08433836563856727,0.09178034896454787
-0.00773517403065825,-0.02818013528831594,-0.1984469349702652
-0.007733174030658251,0.2507437389973012,-0.349418682438086
-0.007731174030658251,0.2524382947341519,0.04056376944663968
-0.00772917403065825,0.07349320892272311,-0.05919139850327301
-0.00772717403065825,0.01757286960665163,-0.01333080115717221
-0.007725174030658251,0.3896973094190546,-0.1043824980778979
-0.00772317403065825,0.2836181202922038,-0.4408051282445498
-0.00772117403065825,-0.4569027367115306,-0.6694386172035778
-0.007719174030658251,-0.1139246555729589,-0.004627330127985195
-0.00771717403065825,-0.09901256508867315,-0.1425438710520256
-0.00771517403065825,-0.009201111035588648,-0.04446244753080267
-0.007713174030658251,0.2432876937551583,0.1925397635716744
-0.007711174030658251,0.09992827841759326,-0.2011249260561689
-0.00770917403065825,0.06061458532265816,-0.2339303168584892
-0.00770717403065825,-0.03292489135149776,-0.2044724149135485
-0.007705174030658251,0.007066624038177599,0.319409591266362
-0.00770317403065825,-0.1190083227835108,0.1135390265375154
-0.00770117403065825,-0.04444787036208218,-0.2345998146299651
-0.007699174030658251,0.04129664992256074,0.04491550496123319
-0.00769717403065825,0.03553516041726854,0.205594970115455
-0.00769517403065825,0.08637183252278806,-0.1961036927700995
-0.007693174030658251,0.09145549973334001,-0.3514271757525138
-0.007691174030658251,-0.3701414829847773,-0.3571179068100592
-0.00768917403065825,-0.4850323619432514,-0.3758638444113851
-0.007687174030658251,-0.2410163358367577,0.006754131987105514
-0.007685174030658251,0.05248071778577504,-0.1689890330253246
-0.00768317403065825,0.07213756433324259,-0.156268575367282
-0.00768117403065825,0.2846348537343142,-0.3440627002662787
-0.007679174030658251,-0.2433887138683486,0.06232244701960721
-0.00767717403065825,-0.1928909529101992,-0.1465608576808811
-0.00767517403065825,-0.08443938575175755,-0.3614696423246527
-0.007673174030658251,0.1161960134913595,0.1537088928260708
-0.00767117403065825,-0.0142847782461406,0.3411682688393296
-0.00766917403065825,-0.06274907232006922,-0.08864930044821366
-0.007667174030658251,0.1782167534600933,-0.4434831193304534
-0.007665174030658251,-0.114263566720329,-0.04613619195949249
-0.00766317403065825,-0.001745065793445785,0.0395595227894258
-0.007661174030658251,0.3086975451975935,-0.1837179839977949
-0.007659174030658251,-0.4792708724379592,-0.08831455156247571
-0.00765717403065825,-0.4094551760797124,0.2454300875182724
-0.00765517403065825,-0.619580087449193,0.02918230733154897
-0.007653174030658251,-0.09189543099390041,-0.2185318681145429
-0.00765117403065825,0.1927899327970089,-0.07592884279017111
-0.00764917403065825,-0.06478253920429,0.152369897283119
-0.007647174030658251,-0.3935263521533163,0.1202340042522746
-0.00764517403065825,0.2558274062078532,0.2594895407192669
-0.00764317403065825,0.1090788793965868,0.1774760637134662
-0.007641174030658251,0.07722123154379454,0.1493571573114773
-0.007639174030658251,0.3832579976190221,0.6226920817449557
-0.00763717403065825,0.1772000200179829,0.09311934450749972
-0.007635174030658251,0.05180289549103478,-0.103713000306422
-0.007633174030658251,0.07078191974376206,0.09981432222225896
-0.00763117403065825,-0.1972967978260109,-0.2764434253472103
-0.00762917403065825,-0.3145600548160759,-0.3487491846666102
-0.007627174030658251,-0.03394162479360815,-0.2553542455457187
-0.00762517403065825,0.3012414999554506,-0.5305178296223235
-0.00762317403065825,0.1402587049546387,-0.306570825063627
-0.007621174030658251,0.6208347119254833,0.1456749195683598
-0.007619174030658251,-0.3325223456266928,0.2122899478302142
-0.00761717403065825,-0.3809866397006214,-0.4843224833904848
-0.007615174030658251,0.04502467254363218,-0.2982021029201779
-0.007613174030658251,0.2697227632500285,-0.2506677611453872
-0.00761117403065825,-0.01394586709877047,-0.2148496303714253
-0.00760917403065825,0.01926742534350228,0.1985652435149578
-0.007607174030658251,-0.155949637846855,0.117221264280633
-0.00760517403065825,0.3754630412295091,-0.262383972146216
-0.00760317403065825,-0.2250875119103616,-0.1097384802497053
-0.007601174030658251,-0.6578770471020178,0.2109509522872623
-0.00759917403065825,0.02265653681720359,-0.03709797204456751
-0.00759717403065825,-0.3372671016898747,0.08374637570683678
-0.007595174030658251,0.4415507149666845,0.3438462599252333
-0.007593174030658251,-0.0288579575830562,0.1396494396250764
-0.00759117403065825,0.05010833975418413,-0.1478998532238329
-0.007589174030658251,-0.0996903873834134,-0.1803704951404153
-0.007587174030658251,-0.2715183391000694,-0.09835701813461456
-0.00758517403065825,-0.4535136252378293,-0.2299133302296336
-0.00758317403065825,-0.6436427789124723,-0.6376374730584714
-0.007581174030658251,-0.4447019354062059,-0.2955241118342742
-0.00757917403065825,0.07518776465957376,0.03186029841745266
-0.00757717403065825,0.2690449409552882,-0.2098283970853559
-0.007575174030658251,-0.08477829689912768,-0.07961108053328869
-0.00757317403065825,-0.0929121644360108,-0.1586118175674477
-0.00757117403065825,0.03180713779619711,-0.09266628707706921
-0.007569174030658251,0.03282387123830749,0.2045907234582411
-0.007567174030658251,0.09620025579652183,-0.2453117789735799
